…
# convert the data to tidy format
politics_ind_tidy %>% group_by(headline_category) %>%
  unnest_tokens(., headline_words, headline_text) -> politics_ind_tidy

politics_ind_tidy
```

    ## # A tibble: 509,299 x 4
    ## # Groups:   headline_category [2]
    ##    publish_date headline_category headline_sub_category headline_words
    ##    <date>       <chr>             <chr>                 <chr>         
    ##  1 2001-01-02   political_party   bjp                   bjp           
    ##  2 2001-01-02   political_party   bjp                   jumps         
    ##  3 2001-01-02   political_party   bjp                   into          
    ##  4 2001-01-02   political_party   bjp                   rail          
    ##  5 2001-01-02   political_party   bjp                   track         
    ##  6 2001-01-02   political_party   bjp                   conversion    
    ##  7 2001-01-02   political_party   bjp                   issue         
    ##  8 2001-01-02   political_party   bjp                   bjp           
    ##  9 2001-01-02   political_party   bjp                   jumps         
    ## 10 2001-01-02   political_party   bjp                   into          
    ## # ... with 509,289 more rows
…
